{
  "stats": {
    "suites": 1,
    "tests": 1,
    "passes": 1,
    "pending": 0,
    "failures": 0,
    "start": "2022-05-13T17:33:14.378Z",
    "end": "2022-05-13T17:33:30.354Z",
    "duration": 15976,
    "testsRegistered": 1,
    "passPercent": 100,
    "pendingPercent": 0,
    "other": 0,
    "hasOther": false,
    "skipped": 0,
    "hasSkipped": false
  },
  "results": [
    {
      "uuid": "fb99cfef-cb97-49a8-9087-687f6dd8f2e2",
      "title": "",
      "fullFile": "cypress/integration/shoppings/faq/shopping-faq-criar.spec.js",
      "file": "cypress/integration/shoppings/faq/shopping-faq-criar.spec.js",
      "beforeHooks": [],
      "afterHooks": [],
      "tests": [],
      "suites": [
        {
          "uuid": "4b138848-0e5e-4a92-820c-38187baed024",
          "title": "FAQ - Deve criar um novo FAQ",
          "fullFile": "",
          "file": "",
          "beforeHooks": [],
          "afterHooks": [],
          "tests": [
            {
              "title": "Deve criar um faq",
              "fullTitle": "FAQ - Deve criar um novo FAQ Deve criar um faq",
              "timedOut": null,
              "duration": 15810,
              "state": "passed",
              "speed": "slow",
              "pass": true,
              "fail": false,
              "pending": false,
              "context": null,
              "code": "_shoppingFaqListar.Shopping_FAQ.selecionar_faq();\n_shoppingFaqListar.Shopping_FAQ.assrtv_pagina();\n_shoppingFaqCriar.Shopping_FAQC.criar_faq();\n_shoppingFaqCriar.Shopping_FAQC.assrtv_pag();\n_shoppingFaqCriar.Shopping_FAQC.preencher_campos();\n_shoppingFaqCriar.Shopping_FAQC.adicionar_faq();\n_shoppingFaqCriar.Shopping_FAQC.assrtv_modal();\n_shoppingFaqCriar.Shopping_FAQC.confirmar_faq();",
              "err": {},
              "uuid": "4d4d2939-a290-409d-b08a-f633e1972c49",
              "parentUUID": "4b138848-0e5e-4a92-820c-38187baed024",
              "isHook": false,
              "skipped": false
            }
          ],
          "suites": [],
          "passes": [
            "4d4d2939-a290-409d-b08a-f633e1972c49"
          ],
          "failures": [],
          "pending": [],
          "skipped": [],
          "duration": 15810,
          "root": false,
          "rootEmpty": false,
          "_timeout": 2000
        }
      ],
      "passes": [],
      "failures": [],
      "pending": [],
      "skipped": [],
      "duration": 0,
      "root": true,
      "rootEmpty": true,
      "_timeout": 2000
    }
  ],
  "meta": {
    "mocha": {
      "version": "7.0.1"
    },
    "mochawesome": {
      "options": {
        "quiet": false,
        "reportFilename": "mochawesome",
        "saveHtml": false,
        "saveJson": true,
        "consoleReporter": "spec",
        "useInlineDiffs": false,
        "code": true
      },
      "version": "7.0.1"
    },
    "marge": {
      "options": {
        "id": "default",
        "reportDir": "cypress/reports/mocha",
        "quite": true,
        "overwrite": false,
        "html": false,
        "json": true
      },
      "version": "6.0.1"
    }
  }
}