{
  "stats": {
    "suites": 2,
    "tests": 4,
    "passes": 4,
    "pending": 0,
    "failures": 0,
    "start": "2022-05-13T17:37:16.060Z",
    "end": "2022-05-13T17:37:41.283Z",
    "duration": 25223,
    "testsRegistered": 4,
    "passPercent": 100,
    "pendingPercent": 0,
    "other": 0,
    "hasOther": false,
    "skipped": 0,
    "hasSkipped": false
  },
  "results": [
    {
      "uuid": "58f75398-0b6d-4a4d-a5a8-c6a520e092d4",
      "title": "",
      "fullFile": "cypress/integration/usuarios/usuarios-cadastrar.spec.js",
      "file": "cypress/integration/usuarios/usuarios-cadastrar.spec.js",
      "beforeHooks": [],
      "afterHooks": [],
      "tests": [],
      "suites": [
        {
          "uuid": "56fa3bab-f6ba-4494-990e-13f147261a57",
          "title": "USUÁRIOS - Cadastrar usuário",
          "fullFile": "",
          "file": "",
          "beforeHooks": [],
          "afterHooks": [],
          "tests": [
            {
              "title": "Deve cadastrar um novo usuário, Operador de Backoffice",
              "fullTitle": "USUÁRIOS - Cadastrar usuário Deve cadastrar um novo usuário, Operador de Backoffice",
              "timedOut": null,
              "duration": 9207,
              "state": "passed",
              "speed": "medium",
              "pass": true,
              "fail": false,
              "pending": false,
              "context": null,
              "code": "_usuariosCadastrar.Usuarios.assertiva_pag_usuarios();\n_usuariosCadastrar.Usuarios.adicionar_usuario();\n_usuariosCadastrar.Usuarios.assertiva_modal();\n_usuariosCadastrar.Usuarios.preencher_modal('Operador de Backoffice');\n_usuariosCadastrar.Usuarios.fechar_dropdown();\n_usuariosCadastrar.Usuarios.preenche_senha();\n_usuariosCadastrar.Usuarios.criar_usuario();",
              "err": {},
              "uuid": "7ac812bb-6e39-4daf-953b-40064de5cd0a",
              "parentUUID": "56fa3bab-f6ba-4494-990e-13f147261a57",
              "isHook": false,
              "skipped": false
            },
            {
              "title": "Deve cadastrar um novo usuário, Lojista",
              "fullTitle": "USUÁRIOS - Cadastrar usuário Deve cadastrar um novo usuário, Lojista",
              "timedOut": null,
              "duration": 6271,
              "state": "passed",
              "speed": "medium",
              "pass": true,
              "fail": false,
              "pending": false,
              "context": null,
              "code": "_usuariosCadastrar.Usuarios.assertiva_pag_usuarios();\n_usuariosCadastrar.Usuarios.adicionar_usuario();\n_usuariosCadastrar.Usuarios.assertiva_modal();\n_usuariosCadastrar.Usuarios.preencher_modal_lojista('Vendedor (Loja)');\n_usuariosCadastrar.Usuarios.fechar_dropdown();\n_usuariosCadastrar.Usuarios.seleciona_loja();\n_usuariosCadastrar.Usuarios.preenche_senha();\n_usuariosCadastrar.Usuarios.criar_usuario();",
              "err": {},
              "uuid": "ab4581af-550a-44e2-a2d0-c2e66b8cedf1",
              "parentUUID": "56fa3bab-f6ba-4494-990e-13f147261a57",
              "isHook": false,
              "skipped": false
            }
          ],
          "suites": [
            {
              "uuid": "f8dd4f00-72d1-49b7-bb02-d3f3d8d1a593",
              "title": "Deve falhar ao cadastrar um novo usuário, Operador de Backoffice",
              "fullFile": "",
              "file": "",
              "beforeHooks": [],
              "afterHooks": [],
              "tests": [
                {
                  "title": "Deve tentar cadastrar senhas diferentes",
                  "fullTitle": "USUÁRIOS - Cadastrar usuário Deve falhar ao cadastrar um novo usuário, Operador de Backoffice Deve tentar cadastrar senhas diferentes",
                  "timedOut": null,
                  "duration": 5296,
                  "state": "passed",
                  "speed": "medium",
                  "pass": true,
                  "fail": false,
                  "pending": false,
                  "context": null,
                  "code": "_usuariosCadastrar.Usuarios.assertiva_pag_usuarios();\n_usuariosCadastrar.Usuarios.adicionar_usuario();\n_usuariosCadastrar.Usuarios.assertiva_modal();\n_usuariosCadastrar.Usuarios.preencher_modal('Operador de Backoffice');\n_usuariosCadastrar.Usuarios.preenche_senha_diferente();\n_usuariosCadastrar.Usuarios.criar_usuario();\n_usuariosCadastrar.Usuarios.assertiva_senhas_diferentes();",
                  "err": {},
                  "uuid": "9cb7e7a6-f56d-46fc-99ef-69722a699186",
                  "parentUUID": "f8dd4f00-72d1-49b7-bb02-d3f3d8d1a593",
                  "isHook": false,
                  "skipped": false
                },
                {
                  "title": "Deve tentar cadastrar sem preencher senha",
                  "fullTitle": "USUÁRIOS - Cadastrar usuário Deve falhar ao cadastrar um novo usuário, Operador de Backoffice Deve tentar cadastrar sem preencher senha",
                  "timedOut": null,
                  "duration": 4380,
                  "state": "passed",
                  "speed": "fast",
                  "pass": true,
                  "fail": false,
                  "pending": false,
                  "context": null,
                  "code": "_usuariosCadastrar.Usuarios.assertiva_pag_usuarios();\n_usuariosCadastrar.Usuarios.adicionar_usuario();\n_usuariosCadastrar.Usuarios.assertiva_modal();\n_usuariosCadastrar.Usuarios.preencher_modal('Operador de Backoffice');\n_usuariosCadastrar.Usuarios.criar_usuario();\n_usuariosCadastrar.Usuarios.assertiva_senha_obrigatoria();",
                  "err": {},
                  "uuid": "efc8fd45-25e3-498b-9b05-6a27f8aa0ee0",
                  "parentUUID": "f8dd4f00-72d1-49b7-bb02-d3f3d8d1a593",
                  "isHook": false,
                  "skipped": false
                }
              ],
              "suites": [],
              "passes": [
                "9cb7e7a6-f56d-46fc-99ef-69722a699186",
                "efc8fd45-25e3-498b-9b05-6a27f8aa0ee0"
              ],
              "failures": [],
              "pending": [],
              "skipped": [],
              "duration": 9676,
              "root": false,
              "rootEmpty": false,
              "_timeout": 2000
            }
          ],
          "passes": [
            "7ac812bb-6e39-4daf-953b-40064de5cd0a",
            "ab4581af-550a-44e2-a2d0-c2e66b8cedf1"
          ],
          "failures": [],
          "pending": [],
          "skipped": [],
          "duration": 15478,
          "root": false,
          "rootEmpty": false,
          "_timeout": 2000
        }
      ],
      "passes": [],
      "failures": [],
      "pending": [],
      "skipped": [],
      "duration": 0,
      "root": true,
      "rootEmpty": true,
      "_timeout": 2000
    }
  ],
  "meta": {
    "mocha": {
      "version": "7.0.1"
    },
    "mochawesome": {
      "options": {
        "quiet": false,
        "reportFilename": "mochawesome",
        "saveHtml": false,
        "saveJson": true,
        "consoleReporter": "spec",
        "useInlineDiffs": false,
        "code": true
      },
      "version": "7.0.1"
    },
    "marge": {
      "options": {
        "id": "default",
        "reportDir": "cypress/reports/mocha",
        "quite": true,
        "overwrite": false,
        "html": false,
        "json": true
      },
      "version": "6.0.1"
    }
  }
}