{
  "stats": {
    "suites": 1,
    "tests": 1,
    "passes": 1,
    "pending": 0,
    "failures": 0,
    "start": "2022-05-13T17:25:48.630Z",
    "end": "2022-05-13T17:26:15.678Z",
    "duration": 27048,
    "testsRegistered": 1,
    "passPercent": 100,
    "pendingPercent": 0,
    "other": 0,
    "hasOther": false,
    "skipped": 0,
    "hasSkipped": false
  },
  "results": [
    {
      "uuid": "b031328f-f6cd-41fc-a412-14f1df17e100",
      "title": "",
      "fullFile": "cypress/integration/campanhas/campanhas-alterar.spec.js",
      "file": "cypress/integration/campanhas/campanhas-alterar.spec.js",
      "beforeHooks": [],
      "afterHooks": [],
      "tests": [],
      "suites": [
        {
          "uuid": "c1703123-9b74-4f6f-8dfb-dff221aa2b23",
          "title": "CAMPANHAS - Alterar uma campanha",
          "fullFile": "",
          "file": "",
          "beforeHooks": [],
          "afterHooks": [],
          "tests": [
            {
              "title": "Deve alterar uma campanha",
              "fullTitle": "CAMPANHAS - Alterar uma campanha Deve alterar uma campanha",
              "timedOut": null,
              "duration": 26928,
              "state": "passed",
              "speed": "slow",
              "pass": true,
              "fail": false,
              "pending": false,
              "context": null,
              "code": "_campanhasListar.Campanhas.assertiva_pag_campanhas();\n_campanhasAlterar.Campanhas_Alterar.alterar_campanha();\n_campanhasAlterar.Campanhas_Alterar.alterar_nome();\n_campanhasAlterar.Campanhas_Alterar.salvar_edicao();\n_campanhasAlterar.Campanhas_Alterar.modal_sucesso();\n_campanhasAlterar.Campanhas_Alterar.voltar_pra_lista();\n_campanhasAlterar.Campanhas_Alterar.buscar_campanha();\n_campanhasAlterar.Campanhas_Alterar.assertiva_campanha();",
              "err": {},
              "uuid": "2eba6078-e0be-4609-832a-5639aee9c91a",
              "parentUUID": "c1703123-9b74-4f6f-8dfb-dff221aa2b23",
              "isHook": false,
              "skipped": false
            }
          ],
          "suites": [],
          "passes": [
            "2eba6078-e0be-4609-832a-5639aee9c91a"
          ],
          "failures": [],
          "pending": [],
          "skipped": [],
          "duration": 26928,
          "root": false,
          "rootEmpty": false,
          "_timeout": 2000
        }
      ],
      "passes": [],
      "failures": [],
      "pending": [],
      "skipped": [],
      "duration": 0,
      "root": true,
      "rootEmpty": true,
      "_timeout": 2000
    }
  ],
  "meta": {
    "mocha": {
      "version": "7.0.1"
    },
    "mochawesome": {
      "options": {
        "quiet": false,
        "reportFilename": "mochawesome",
        "saveHtml": false,
        "saveJson": true,
        "consoleReporter": "spec",
        "useInlineDiffs": false,
        "code": true
      },
      "version": "7.0.1"
    },
    "marge": {
      "options": {
        "id": "default",
        "reportDir": "cypress/reports/mocha",
        "quite": true,
        "overwrite": false,
        "html": false,
        "json": true
      },
      "version": "6.0.1"
    }
  }
}